 _  __  _               _   _   ____            _            _
 | |/ / | |__     __ _  | | (_) | __ )    __ _  | | __  ___  | |__     ___
 | ' /  | '_ \   / _` | | | | | |  _ \   / _` | | |/ / / __| | '_ \   / _ \
 | . \  | | | | | (_| | | | | | | |_) | | (_| | |   <  \__ \ | | | | | (_) |
 |_|\_\ |_| |_|  \__,_| |_| |_| |____/   \__,_| |_|\_\ |___/ |_| |_|  \___/